bibclean Version 3.07 [26-Dec-2021]

with native pattern matching
E-mail bug reports to Nelson H. F. Beebe <beebe@math.utah.edu>

Copyright (C) 1990--2021 by Nelson H. F. Beebe and the Free Software Foundation, Inc.
This is free software; see the source for copying conditions.  There is NO
warranty; not even for MERCHANTABILITY or FITNESS FOR A PARTICULAR PURPOSE.
